{
  "collection": "@nestjs/schematics",
  "sourceRoot": "apps/nestjs-mono/src",
  "monorepo": true,
  "root": "apps/nestjs-mono",
  "compilerOptions": {
    "webpack": true,
    "tsConfigPath": "apps/nestjs-mono/tsconfig.app.json"
  },
  "projects": {
    "nestjs-mono": {
      "type": "application",
      "root": "apps/nestjs-mono",
      "entryFile": "main",
      "sourceRoot": "apps/nestjs-mono/src",
      "compilerOptions": {
        "tsConfigPath": "apps/nestjs-mono/tsconfig.app.json"
      }
    },
    "users": {
      "type": "application",
      "root": "apps/users",
      "entryFile": "main",
      "sourceRoot": "apps/users/src",
      "compilerOptions": {
        "tsConfigPath": "apps/users/tsconfig.app.json"
      }
    },
    "personalization": {
      "type": "application",
      "root": "apps/personalization",
      "entryFile": "main",
      "sourceRoot": "apps/personalization/src",
      "compilerOptions": {
        "tsConfigPath": "apps/personalization/tsconfig.app.json"
      }
    },
    "order-history": {
      "type": "application",
      "root": "apps/order-history",
      "entryFile": "main",
      "sourceRoot": "apps/order-history/src",
      "compilerOptions": {
        "tsConfigPath": "apps/order-history/tsconfig.app.json"
      }
    },
    "common-lib": {
      "type": "library",
      "root": "libs/common-lib",
      "entryFile": "index",
      "sourceRoot": "libs/common-lib/src",
      "compilerOptions": {
        "tsConfigPath": "libs/common-lib/tsconfig.lib.json"
      }
    }
  }
}